R Coding Exercise – Rayleen Lewis’s Data Analysis Portfolio
…
Both graphs, but particularly the graph of life expectancy as a function of population confirmed this. The observed “streaks” are independent countries’ life expectancy trajectories.

Step 6: More data processing - selecting year with most complete data

To determine the level of missingness in infant mortality by year, I looked at both how the missingness was distributed by year and determined the years with the least amount of missingness (i.e., most complete data)

#To determine the number of infant mortality data points by year, I filtered the africadata to restrict to only rows with missing infant mortality, grouped by year, and counted the number of rows in each year using n() within the summarize statement

incomp_year <- africadata %>% 
  filter(is.na(infant_mortality)) %>%
  group_by(year) %>%
  summarize(n = n()) 
incomp_year

# A tibble: 23 × 2
    year     n
   <int> <int>
 1  1960    10
 2  1961    17
 3  1962    16
 4  1963    16
 5  1964    15
 6  1965    14
 7  1966    13
 8  1967    11
 9  1968    11
10  1969     7
# ℹ 13 more rows
…
#I also wanted to print the number of years with the most data. This follows the same process as above, but I restrict to rows with infant mortality data (i.e., where the value is not NA). And, I restrict the final dataset to years with the most rows of infant mortality data
comp_year <- africadata %>% 
  filter(!is.na(infant_mortality)) %>%
  group_by(year) %>%
  summarize(n = n()) %>%
  filter(n == max(n))
comp_year

# A tibble: 34 × 2
    year     n
   <int> <int>
 1  1982    51
 2  1983    51
 3  1984    51
 4  1985    51
 5  1986    51
 6  1987    51
 7  1988    51
 8  1989    51
 9  1990    51
10  1991    51
# ℹ 24 more rows
…
